com/example/parknearn/controller/ParkandEarnController.class
com/example/parknearn/repository/ParkandEarnRepository.class
com/example/parknearn/controller/VehicleParkandEarnController.class
com/example/parknearn/Application.class
com/example/parknearn/model/VehicleParkandEarn.class
com/example/parknearn/model/ParkandEarn.class
com/example/parknearn/repository/VehicleParkandEarnRepository.class
